1 1 1
1 2 2
1 10 20
1 50 112
1 100 119
1 500 144
1 1000 179
52792 113158 354
349659 817467 509
208231 217042 386
126519 421264 449
676028 892336 525
907529 964466 507
212747 735068 509
393271 633307 509
38581 217440 386
62874 113370 354
142097 390115 443
393959 920378 525
42339 337966 443
704478 986923 525
102127 515291 470
763247 923354 525
673874 733301 504
835535 859615 525
276796 925500 525
706306 874638 525
132470 805629 509
82368 704964 509
2679 359804 443
604590 650866 509
94760 137987 354
184532 927462 525
443007 739902 509
68920 282409 443
370781 935658 525
329057 492909 449
66624 877025 525
555077 706573 509
78385 206339 383
195876 613950 470
741813 898412 525
93616 116644 354
17475 722177 509
7674 772822 509
553661 745247 509
31267 989195 525
739027 839910 525
198064 858788 525
430643 453463 400
633755 949455 525
252694 416826 449
75478 931071 525
583687 870714 525
246363 385286 441
497498 989416 525
799674 954021 525
49810 338463 443
256124 392618 441
728406 996866 525
205320 534256 470
271660 887504 525
299854 565104 470
577253 992542 525
84511 629999 509
540089 927315 525
528243 864153 525
65621 735598 509
278004 769689 509
414318 567492 470
484820 791197 509
257136 602118 470
43583 443669 449
53530 976836 525
239943 334968 407
16875 765492 509
647495 675341 442
824348 974313 525
271206 780776 509
475315 624578 470
347544 814999 509
228339 664935 509
583021 648823 509
40003 289599 443
132150 821932 509
171763 899517 525
396262 478260 449
805320 932115 525
47796 689211 509
111086 660010 509
592025 644663 509
86661 561949 470
130390 799543 509
575635 654559 509
236964 681663 509
242396 575381 470
108203 201503 383
204365 885463 525
610149 669999 509
890270 922442 476
750166 948376 525
195950 582724 470
542151 719901 509
187452 446707 449
418965 605123 470
503071 691425 509
237833 615692 470
930661 952873 507
511630 977261 525
224924 408636 443
360868 858086 525
516325 946153 525
8383 427343 449
244854 310993 407
220348 924191 525
185612 723767 509
596749 828800 509
246115 891449 525
437961 711424 509
24075 555088 470
73304 458526 449
772363 901559 525
257750 521701 470
629689 958396 525
293711 452359 449
108583 787823 509
652777 692035 442
502188 525293 470
654730 796012 504
303292 363859 441
84362 250101 443
525241 806716 509
269378 700739 509
336672 520778 470
775967 991496 525
278861 599669 470
505314 848737 525
219343 576133 470
28014 833250 509
498282 762607 509
386448 607394 470
607860 799970 509
597137 956229 525
410571 902317 525
572519 905365 525
156575 762769 509
504411 750934 509
658854 699151 442
363745 710629 509
28395 347791 443
226526 704625 509
292155 945700 525
648297 915183 525
6283 287190 443
118611 819155 509
339444 681676 509
481289 828138 509
826713 977573 525
109102 255399 443
11853 22043 279
666870 671079 367
295633 707823 509
65182 352031 443
439585 611612 470
39241 276199 443
724868 728135 349
540911 681337 509
15669 68358 340
285316 968368 525
56746 521290 470
887 581462 470
34847 667408 509
243599 244178 337
183367 398910 443
164994 911018 525
147038 646150 509
576495 982592 525
580036 684041 509
17558 116998 354
499620 814026 509
271491 789668 509
49185 91273 351
482035 555983 470
490395 515069 470
180144 752745 509
385633 742061 509
256244 895303 525
429805 482198 444
616507 876611 525
88613 562586 470
173108 549064 470
53234 568470 470
270923 535556 470
101330 450305 449
194771 933490 525
317660 880440 525
443794 473092 444
343443 663736 509
370179 943152 525
543407 723107 509
