2540 8376 262
3193 6278 262
4955 5946 236
5552 5599 236
7931 9654 260
8343 9965 260
12815 17674 279
17550 18595 279
18332 19884 274
23240 28228 308
26127 26641 308
28378 29047 228
28812 29080 228
33405 39914 324
37748 37933 262
39675 41802 306
40660 47583 314
42035 43257 288
45128 50994 314
47334 48695 283
47539 47653 221
51105 52229 309
51882 51967 247
56708 58089 304
61955 69331 330
62848 64899 330
66190 66582 268
69674 75204 325
74402 77629 351
76242 77844 351
85934 89838 333
87681 91013 333
93487 99355 328
96739 102206 341
96893 98242 297
102430 103206 310
104968 106513 354
105497 105877 310
106822 111029 323
116067 119021 336
122476 125667 331
130446 133927 331
134762 138070 344
138028 146540 375
139682 146642 375
140033 145326 375
144337 149900 357
145608 148433 357
147380 147792 295
147776 151051 370
149345 153721 370
149959 150140 370
152706 153807 308
156155 159213 383
161311 163100 339
163154 165404 334
168816 170556 334
172151 174805 347
174287 177915 334
178336 179862 303
178791 178876 241
184274 190045 360
184403 184841 254
186427 188159 347
187280 194638 360
189767 191942 360
193040 198136 360
194391 194786 267
194785 198488 360
201569 203067 342
206385 206546 342
213788 214634 373
216995 220301 355
218374 219419 337
220363 227355 368
225838 228357 368
227630 229069 355
231668 238534 381
231850 232002 306
239218 240825 368
239944 242585 368
241254 241395 275
241876 242227 275
242881 243062 275
248476 251372 350
249226 250332 332
253288 262102 363
256506 259927 345
261314 266548 407
266418 268359 345
266854 268306 345
267508 268022 301
273679 275464 358
278182 283025 358
280105 283046 358
280230 280349 314
280825 289317 389
281420 282626 327
282405 284871 358
287481 289831 389
289275 291161 327
289577 289718 327
294773 300072 371
295366 298518 327
296114 297125 327
297141 298564 327
299648 305570 371
307716 308139 371
309873 310781 371
311061 313709 384
314395 318203 353
315105 320688 353
315217 315515 309
321871 327211 384
322018 322100 216
322868 325949 384
323016 327940 384
326641 328526 322
327136 328066 322
328656 328703 216
330512 332792 353
331341 331842 291
335073 335501 291
335882 336576 366
336196 336468 366
336790 338093 366
337232 337351 247
342705 346250 441
344416 345225 304
344850 345342 304
346041 346189 229
347071 349203 335
352836 357310 379
353180 353441 273
353752 360678 410
354076 354118 242
354710 357102 379
356436 359462 379
359070 359657 317
359474 360389 410
361520 364808 361
361857 369595 361
362824 364234 317
364864 365219 361
365215 369453 348
368858 370570 392
371088 378246 423
372962 373223 286
373026 373194 255
378145 383282 379
382539 385973 348
387565 393222 436
387771 388008 299
394061 397569 405
394811 395169 299
396052 396705 330
396929 398930 374
398942 401778 387
398944 398944 69
400188 401215 387
400297 401753 387
402033 402924 268
404434 408316 405
409442 412471 449
411924 413097 343
416745 419274 343
416941 420270 343
419971 420196 281
427985 430703 312
428405 434612 387
436520 444745 400
436668 438986 400
438281 438331 294
438326 439276 400
439920 443812 356
444206 446962 338
444338 447528 338
447663 447669 113
450035 450455 369
450266 456899 387
450287 450388 263
451587 452704 294
454181 456713 338
459711 462487 444
463493 468874 413
468862 475348 382
475928 480643 413
476838 479122 382
482839 488029 382
483988 485285 320
488782 491484 351
493567 501970 395
497256 500519 395
499068 501891 395
505571 508111 382
509616 510589 364
509775 509993 364
510068 512036 470
510485 511128 333
512852 514616 351
