325813 609587 470
298231 694630 509
514652 267472 470
428838 333389 449
74171 609050 470
227902 665908 509
63732 14325 340
906832 266753 525
371504 957091 525
123888 498530 449
292212 430846 449
221405 526903 470
11149 957115 525
296942 566796 470
842595 387071 525
607055 864070 525
732375 44482 509
202924 82918 383
605342 869105 525
645282 236243 509
211368 379931 443
416730 789480 509
146778 709146 509
974017 791669 525
171890 66063 383
633808 159002 509
784115 133095 509
109788 981464 525
387647 464534 449
910483 278412 525
46997 400114 443
516427 334803 470
548378 655662 509
93222 106065 341
370275 756733 509
925311 805796 525
985492 216570 525
262548 414669 449
708035 211530 509
615956 566841 447
620228 272179 470
138626 570966 470
872184 463325 525
913918 915275 370
938152 789497 525
755068 496594 509
894850 736023 525
25960 828768 509
430571 763362 509
822964 21663 509
224152 570760 470
692676 988455 525
774276 437818 509
591184 751362 509
781423 340025 509
705998 282173 509
705542 570779 509
202980 97392 383
407826 478428 449
402368 54647 443
852896 22760 525
864827 319169 525
510425 398551 449
349287 177892 443
287806 934378 525
195547 29337 383
370128 930371 525
154517 490369 449
861245 224139 525
521908 176198 470
884372 911814 476
432624 493166 444
990399 681096 525
854966 647469 525
821048 140071 509
699268 785627 504
646416 491083 509
600599 414809 470
122682 464272 449
731350 780217 468
574556 965412 525
707053 541583 509
709566 862650 525
251259 273889 407
267796 464265 449
343772 446760 449
755654 416769 509
617429 34152 470
327602 431941 449
363452 671194 509
607862 754070 509
408770 160001 443
230189 841242 525
1839 647370 509
168626 811437 509
292406 121452 443
874560 288708 525
674791 408458 509
696991 692711 367
956107 735287 525
994142 103603 525
235699 913325 525
1212 833519 509
372904 884760 525
341551 360448 441
91617 534633 470
278928 174786 443
205575 542394 470
751199 177523 509
215903 760071 509
684361 939492 525
457422 449500 387
909923 482838 525
461514 430786 444
644626 213369 509
830412 530456 509
862701 345819 525
613181 768436 509
383051 321053 441
462253 599043 470
425066 768119 509
512889 356646 470
679565 770946 504
951717 794184 525
263157 919587 525
614017 165251 470
684631 133416 509
635807 305366 509
465675 292967 449
662472 957428 525
875085 365600 525
277355 810605 509
939494 168113 525
233129 614083 470
957403 974526 458
606781 316718 470
187423 173709 365
790257 814695 468
223406 65269 386
81053 895610 525
326724 373810 441
771099 989018 525
407022 774760 509
707649 92467 509
920137 674634 525
810175 542993 509
993324 162233 525
294814 121747 443
200348 762698 509
387241 648028 509
194445 425803 449
929882 353994 525
86936 665061 509
49569 537500 470
577247 130406 470
60425 194768 383
895537 229226 525
125100 614035 470
443357 724569 509
330239 672411 509
354386 155509 443
211102 538000 470
654037 162117 509
986683 677917 525
421744 22216 449
848458 117718 525
101276 450235 449
737231 853681 525
683627 724640 504
77013 726903 509
8430 891119 525
226640 207776 386
786605 395182 509
496031 485891 426
651108 255474 509
73300 116527 354
739226 901067 525
717235 975733 525
483945 395744 449
339875 409497 441
516331 256040 470
428950 720196 509
661993 325755 509
174551 747002 509
1058 460973 449
605648 789659 509
674145 984543 525
299961 497369 449
801333 725525 468
267336 85973 443
797501 999541 525
726806 462203 509
73237 709441 509
494709 796967 509
855347 544158 525
18993 263195 443
15346 917852 525
276561 215076 443
318834 308417 384
27328 731846 509
123600 397904 443
142105 765224 509
834857 309572 509
285112 73427 443
988988 774170 525
124835 327738 443
25817 594752 470
280024 647373 509
296839 296327 327
